Descriptive analysis trial data
…
test <- transform(AA,rank=ave(1:nrow(AA),AA$loan.number,FUN=function(x) order(AA$loan.number[x],AA$created[x],decreasing=FALSE)))

#====================== transponse the data ==================
#test_1 <- dcast(test, loan.number  ~ rank, value.var="Additional.Amount")
test_2 <- dcast(setDT(test), loan.number  ~ rank, value.var=c("Additional.Amount", "created"))

#===================== join the data ========================

Join_data <- merge(x = MA, y = test_2, by = "loan.number", all.x = TRUE)

Check duplicates

AA[duplicated(AA$loan.number), ]

## # A tibble: 689 x 4
##    Agreement.ID loan.number Additional.Amount created            
##           <dbl>       <dbl>             <dbl> <dttm>             
##  1         4620  9994284001                60 2014-01-16 17:55:30
##  2         5095  9993801001               100 2014-01-24 19:51:15
##  3         5149  9994537001                60 2014-01-26 13:07:35
##  4         5504  9994299001                60 2014-02-01 12:41:20
##  5         6709  9993049001                60 2014-02-20 17:57:50
##  6         6718  9993170002                68 2014-02-20 19:46:54
##  7         6766  9993306001                80 2014-02-21 13:40:37
##  8         6832  9993049001                60 2014-02-22 12:45:33
##  9         6857  9994714001                60 2014-02-23 10:38:30
## 10         7243  9992603001                60 2014-03-02 12:55:05
## # ... with 679 more rows
…
